Freshwater Atlas British Columbia • fwatlasbc
…
Get stream network for the watershed polygon. Note that rm is from the original watershed while downstream/upstream_route_measure are the equivalents for the stream segment in the network.

network <- fwa_add_collection_to_polygon(wshed, "stream_network")
network
#> Simple feature collection with 76 features and 29 fields
#> Geometry type: LINESTRING
#> Dimension:     XY
#> Bounding box:  xmin: 1656200 ymin: 725423.4 xmax: 1661368 ymax: 731603
#> Projected CRS: NAD83 / BC Albers
#> # A tibble: 76 × 30
#>    stream_name       blk    rm blue_line_key blue_line_key_50k
#>    <chr>           <int> <dbl>         <int>             <int>
#>  1 Steep Creek 356436505     0     356436505                NA
#>  2 Steep Creek 356526193     0     356526193               873
#>  3 Steep Creek 356566041     0     356566041              1130
#>  4 Steep Creek 356549188     0     356549188              1131
#>  5 Steep Creek 356566041     0     356566041              1130
#>  6 Steep Creek 356394005     0     356394005                NA
#>  7 Steep Creek 356534225     0     356534225              1142
#>  8 Steep Creek 356549188     0     356549188              1131
#>  9 Steep Creek 356526193     0     356526193               873
#> 10 Steep Creek 356566041     0     356566041              1130
#> # ℹ 66 more rows
#> # ℹ 25 more variables: downstream_route_measure <dbl>, edge_type <dbl>,
#> #   feature_code <chr>, feature_source <chr>, fwa_watershed_code <chr>,
#> #   gnis_id <int>, gnis_name <chr>, gradient <dbl>, left_right_tributary <chr>,
#> #   length_metre <dbl>, linear_feature_id <int>, local_watershed_code <chr>,
#> #   localcode_ltree <chr>, stream_magnitude <dbl>, stream_order <dbl>,
#> #   upstream_route_measure <dbl>, waterbody_key <dbl>, …
…
