…
Get stream network for the watershed polygon. Note that rm is from the
original watershed while downstream/upstream_route_measure are the
equivalents for the stream segment in the network.

``` r
network <- fwa_add_collection_to_polygon(wshed, "stream_network")
network
#> Simple feature collection with 76 features and 31 fields
#> Geometry type: LINESTRING
#> Dimension:     XY
#> Bounding box:  xmin: 1656200 ymin: 725423.1 xmax: 1661368 ymax: 731602.7
#> Projected CRS: NAD83 / BC Albers
#> # A tibble: 76 × 32
#>    stream…¹    blk    rm blue_…² blue_…³ downs…⁴ edge_…⁵ featu…⁶ featu…⁷ fwa_w…⁸
#>    <chr>     <dbl> <dbl>   <dbl>   <dbl>   <dbl>   <dbl> <chr>   <chr>   <chr>  
#>  1 Steep C… 3.57e8     0  3.57e8    1130  2931.     1250 WA2411… areal … 300-90…
#>  2 Steep C… 3.56e8     0  3.56e8      NA  1110.     1000 GA2485… linear… 300-90…
#>  3 Steep C… 3.57e8     0  3.57e8      NA     0      1000 GA2485… linear… 300-90…
#>  4 Steep C… 3.57e8     0  3.57e8    1142  2594.     1000 GA2485… linear… 300-90…
#>  5 Steep C… 3.57e8     0  3.57e8    1142  2251.     1000 GA2485… linear… 300-90…
#>  6 Steep C… 3.56e8     0  3.56e8      NA     0      1000 GA2485… linear… 300-90…
#>  7 Steep C… 3.56e8     0  3.56e8      NA     0      1000 GA2485… linear… 300-90…
#>  8 Steep C… 3.57e8     0  3.57e8    1131    51.8    1000 GA2485… linear… 300-90…
#>  9 Steep C… 3.57e8     0  3.57e8    1130   751.     1250 WA2411… areal … 300-90…
#> 10 Steep C… 3.56e8     0  3.56e8      NA   346.     1000 GA2485… linear… 300-90…
#> # … with 66 more rows, 22 more variables: gnis_id <dbl>, gnis_name <chr>,
#> #   gradient <dbl>, left_right_tributary <chr>, length_metre <dbl>,
#> #   linear_feature_id <dbl>, local_watershed_code <chr>, localcode_ltree <chr>,
#> #   stream_magnitude <dbl>, stream_order <dbl>, stream_order_max <dbl>,
#> #   stream_order_parent <dbl>, upstream_route_measure <dbl>,
#> #   waterbody_key <dbl>, watershed_code_50k <chr>, watershed_group_code <chr>,
#> #   watershed_group_code_50k <chr>, watershed_group_id <dbl>, …
```
…
