…
``` r
fwa_stream_name
```

## Format

An object of class `tbl_df` (inherits from `tbl`, `data.frame`) with
11606 rows and 2 columns.

## Examples

``` r
fwa_stream_name
#> # A tibble: 11,606 × 2
#>          blk stream_name     
#>        <int> <chr>           
#>  1 356350610 111 Mile Creek  
#>  2 356352333 117 Mile Creek  
#>  3 354091024 150 Yard Creek  
#>  4 356328957 3 Mile Creek    
#>  5 359538484 3 Mile Creek    
#>  6 360886335 Aaltanhash River
#>  7 356355679 Abbott Creek    
#>  8 356364151 Abbott Creek    
#>  9 356456720 Abbott Creek    
#> 10 356508798 Abbott Creek    
#> # ℹ 11,596 more rows
```
